2.4 Reading and writing data | Computational Genomics with R Book Club
…
df.f2

## # A tibble: 50,416 × 9
##    X1        X2     X3 X4       X5 X6       X7    X8    X9
##    <chr>  <dbl>  <dbl> <chr> <dbl> <chr> <dbl> <dbl> <dbl>
##  1 chr20 266275 267925 .      1000 .      9.11  13.2    -1
##  2 chr20 287400 294500 .      1000 .     10.5   13.0    -1
##  3 chr20 300500 302500 .      1000 .      9.1   13.4    -1
##  4 chr20 330400 331800 .      1000 .      6.39  13.5    -1
##  5 chr20 341425 343400 .      1000 .      6.2   13.0    -1
##  6 chr20 437975 439900 .      1000 .      6.31  13.5    -1
##  7 chr20 516650 518525 .      1000 .     12.5   13.7    -1
##  8 chr20 519100 521475 .      1000 .      7.1   13.1    -1
##  9 chr20 543800 545775 .      1000 .      9.52  13.0    -1
## 10 chr20 573550 574975 .      1000 .      7.71  13.7    -1
## # … with 50,406 more rows
…
